com/file/management/utils/FileUploadResponse.class
com/file/management/utils/FileUploadUtil.class
com/file/management/utils/FileDownloadUtil.class
com/file/management/controller/FilesController.class
com/file/management/FileManagementApplication.class
